INDEX VERSION 1.130+C:\DDrive\GITMULE\.metadata\.plugins\org.eclipse.jdt.core
3220134801.index
3644435872.index
2822312987.index
2706364576.index
3298302309.index
3432691329.index
1343065578.index
294884669.index
3853717031.index
736988498.index
200997517.index
3355150950.index
1772154217.index
3020092673.index
514875591.index
2362588713.index
1148888418.index
3536243265.index
2303879521.index
2327575287.index
2602839047.index
3458460455.index
3277446207.index
2337945385.index
3720239978.index
1363881086.index
528254703.index
966332512.index
2837370148.index
1494948569.index
1628873222.index
3609222182.index
1371026471.index
109049655.index
4126319962.index
1633699489.index
3439567627.index
1533535508.index
1900393752.index
2653365467.index
4257325822.index
3431878918.index
3390212622.index
642792506.index
3252170524.index
367476701.index
2311120024.index
3896248226.index
658488669.index
1253183356.index
3610046982.index
2763666251.index
1828952964.index
3685673478.index
1333206073.index
1555299234.index
4218034288.index
162939678.index
398281760.index
1756083225.index
3435760337.index
2640244965.index
2441619828.index
3371141967.index
4184775915.index
3549201087.index
4256063414.index
837288888.index
3824149321.index
2246853553.index
3755185207.index
2196023279.index
3868855958.index
3648888.index
1138000938.index
1878305467.index
2670358116.index
2006830926.index
4206855472.index
2314728966.index
2639804312.index
1277323580.index
2224112823.index
1577392747.index
790680302.index
1189067072.index
3323197630.index
2440431574.index
1350942299.index
1590074954.index
2175869259.index
1322502058.index
3279260835.index
74620153.index
394130438.index
2870026962.index
1529934155.index
2696110733.index
2286937395.index
2068290090.index
1339142392.index
1507113113.index
3674738803.index
725299574.index
276026964.index
1368559563.index
3645549542.index
2331070831.index
3168446529.index
2091691698.index
2067507157.index
1439734774.index
1998503038.index
458345748.index
2955983895.index
2994885461.index
965553301.index
1357610912.index
1124636229.index
1243476997.index
625750936.index
3683093307.index
4082856152.index
300555917.index
1545370053.index
3807471550.index
2034362940.index
2446995519.index
780417832.index
193490208.index
1329008604.index
1988235203.index
537361039.index
1161310975.index
45663499.index
2433750290.index
2306554347.index
2266318226.index
2765103160.index
1678541958.index
2373633166.index
1715639824.index
3858398740.index
3398850541.index
3018122695.index
552334013.index
3141653243.index
1840367741.index
2670828807.index
3919290983.index
1392766332.index
1465654374.index
2178097964.index
762483469.index
2746250515.index
687139928.index
3314317583.index
3075449255.index
2982438471.index
3761960259.index
3779338060.index
2160267568.index
3989356754.index
2402353105.index
2887638532.index
1774572566.index
787326424.index
3204380438.index
1192296945.index
1938097377.index
1742397710.index
1600420391.index
2447034076.index
3244024237.index
3402416146.index
3117464344.index
283097773.index
1588710508.index
799031136.index
4058807995.index
2087282586.index
2761000694.index
3995243760.index
89927040.index
1803595222.index
3498375039.index
3780260731.index
2145410701.index
3328038170.index
725776349.index
1295474175.index
3485633341.index
181403153.index
3104412860.index
3070271382.index
1828185937.index
2895765827.index
911493895.index
3014457166.index
3725380057.index
3235375187.index
2283529838.index
2917259412.index
4172333558.index
867600986.index
2149981044.index
3578906183.index
1499437801.index
2199189739.index
2398451326.index
2158091744.index
3672960684.index
4140438010.index
3858245626.index
1671322287.index
2328269416.index
335718718.index
1629652296.index
1617588472.index
2900268041.index
2275258519.index
4079496200.index
32279049.index
3038915009.index
704680443.index
3859987706.index
720190558.index
153782611.index
2036090062.index
1147633119.index
3969712816.index
1640557169.index
257754609.index
3088831547.index
348704173.index
673163369.index
1046808711.index
284528164.index
3489977046.index
1732518718.index
1727857092.index
3161328182.index
660543351.index
2364259857.index
936912351.index
2060063680.index
498449182.index
1388256638.index
3322910285.index
1953376759.index
2136427145.index
328185421.index
2799330212.index
3844526565.index
3538201797.index
2040338716.index
2503260196.index
1135419774.index
1907748100.index
1978365849.index
2166504282.index
1033690002.index
1355630864.index
3001483990.index
2461242967.index
495541926.index
808161962.index
4212990741.index
4212482864.index
1620749268.index
97944213.index
241516732.index
2266581431.index
1472703797.index
3998177381.index
1311586828.index
3656964584.index
2999764951.index
2923689605.index
2644058568.index
853726715.index
660125260.index
3428374554.index
1722868548.index
2602698239.index
4140382990.index
743415068.index
2061817209.index
1845628116.index
2804181724.index
1624903521.index
3762366723.index
1387874912.index
1411200827.index
219233758.index
4137524124.index
4156402163.index
2075065742.index
1250940080.index
1396179022.index
3797468352.index
3812132411.index
994456062.index
1526479848.index
1381504763.index
732788812.index
336727994.index
510913685.index
3222925205.index
310165028.index
635309123.index
4198218767.index
675724303.index
2415673607.index
1652215215.index
1395705015.index
499529661.index
2640605611.index
2897011864.index
2981082518.index
1372057544.index
2287332035.index
1287683502.index
2468079043.index
1796117579.index
2751558580.index
435681673.index
2352244691.index
1792303032.index
3218436785.index
552490819.index
3775501715.index
262299326.index
3733160242.index
3446171735.index
4293923884.index
3682192521.index
3903676198.index
3588821099.index
2364427556.index
4047881282.index
92916878.index
2790607118.index
2443311434.index
969398662.index
950967810.index
2831526092.index
2600993410.index
1607375513.index
1905613350.index
2783877762.index
2366265496.index
350840890.index
4048713634.index
3599396796.index
1716450967.index
2234124232.index
3527119416.index
570772165.index
3736703886.index
3912808739.index
652096822.index
631014426.index
3503516423.index
3451278164.index
929019882.index
2369488390.index
3491510507.index
1446634022.index
846192898.index
1136849578.index
4023759832.index
1042999239.index
3339905072.index
1751860009.index
1091778661.index
3783355027.index
827281286.index
1886646308.index
3333728932.index
4129773725.index
567732244.index
1559377116.index
217186004.index
719763869.index
4209803574.index
4169274842.index
1967871064.index
2771504573.index
3734884401.index
3705015827.index
1184783778.index
445744657.index
1178984233.index
176616524.index
3935175721.index
3992940808.index
4158726253.index
2938374402.index
3190368684.index
659287621.index
2878963094.index
4252708172.index
1198225456.index
96333512.index
2077315427.index
3104170938.index
1559816413.index
3309575559.index
755736335.index
1964312523.index
136556874.index
3337396169.index
370886252.index
389753702.index
1628645464.index
1184989422.index
276148759.index
4286596654.index
877832161.index
3257512568.index
3560776219.index
295553273.index
3771552297.index
3945005015.index
1252709512.index
32297365.index
2382551804.index
2727474389.index
3901945894.index
2200222917.index
166241472.index
304071553.index
368870731.index
106832331.index
2502639436.index
1959405860.index
1584183709.index
3666713465.index
1113379859.index
3308438122.index
3533935125.index
2309211514.index
2054717775.index
497007624.index
1169506021.index
3808475457.index
2572788815.index
4248395976.index
643820005.index
4278085709.index
1710285774.index
2184622650.index
2201774800.index
2021164986.index
2632189996.index
3366356183.index
1456516259.index
2960473259.index
5829451.index
1936449733.index
731752537.index
4039540124.index
928787608.index
3439952225.index
3264197239.index
1518741839.index
2279839186.index
1987367082.index
1527938268.index
1978469471.index
196781965.index
909222898.index
4097546473.index
4113806226.index
4051798854.index
3313532447.index
3072466995.index
765754767.index
2451293990.index
2090302444.index
1846569980.index
4111297862.index
3003457620.index
974280780.index
1011019398.index
4189070187.index
1039677778.index
2948742338.index
205289437.index
3815461422.index
75557756.index
145317400.index
1060963107.index
